Language Without Borders: A Step-by-Step Guide to Analyzing Webcam Eye-Tracking Data for L2 Research
…
RTs.

There is much debate on how to handle RT data (see Miller, 2023). Because of this. we leave it up to the reader and researcher to decide what to do with RTs. In the current example we ignore RTs.

Sampling rate.

While most commercial eye-trackers sample at a constant rate, data captured by webcams are widely inconsistent. Below is some code to calculate the sampling rate of each participant. Ideally, you should not have a sampling rate less than 5 Hz. It has been recommended you drop those values (Bramlett & Wiener, 2024) The below function analyze_sample_rate() calculates calculates the sampling rate for each subject and each trial in our eye-tracking dataset (edat_L2). The function provides overall statistics, including the median (used by (Bramlett & Wiener, 2024)) and standard deviation of sampling rates in your experiment,and also generates a histogram of median sampling rates by subject. Looking at Figure 4, the sampling rate ranges from 5 to 35 Hz with a median sampling rate of 21.56. This corresponds to previous webcam eye-tracking work (e.g., (Bramlett & Wiener, 2024; Prystauka et al., 2024))

samp_rate_L2 <- analyze_sampling_rate(edat_L2)

Overall Median Sampling Rate (Hz): 21.56171771 
Overall Standard Deviation of Sampling Rate (Hz): 7.399937723 

Sampling Rate by Trial:
# A tibble: 10,665 × 5
# Groups:   subject [60]
   subject  trial max_time n_times    SR
   <fct>    <fct>    <dbl>   <int> <dbl>
 1 12102265 8        4895      108  22.1
 2 12102265 11       4920.     112  22.8
 3 12102265 15       4911.      79  16.1
 4 12102265 17       4916.     113  23.0
 5 12102265 20       4903.     112  22.8
 6 12102265 21       1826.      40  21.9
 7 12102265 28       4917.     114  23.2
 8 12102265 31       4913.      79  16.1
 9 12102265 34       4948.      88  17.8
10 12102265 35       4901.      93  19.0
# ℹ 10,655 more rows

Median Sampling Rate by Subject:
# A tibble: 60 × 2
   subject  med_SR
   <fct>     <dbl>
 1 12102265  21.9 
 2 12102286  30.6 
 3 12102530  19.9 
 4 12110559  29.3 
 5 12110579  13.3 
 6 12110585  30.1 
 7 12110586  14.8 
 8 12110600   2.47
 9 12110638  29.0 
10 12110685  19.5 
# ℹ 50 more rows
…
